Simulink/BC_donem_2/Parameter Estimation/DC Motor/T0000ALL.CSV

Model,MSO2012,,,
Firmware Version,1.06,,,
,,,,
Point Format,Y,,,
Horizontal Units,S,,,
Horizontal Scale,2,,,
Sample Interval,0.0032,,,
Filter Frequency,1.00E+08,,,
Record Length,6242,,,
Gating,0.0% to 100.0%,,0.0% to 100.0%,
Probe Attenuation,1,,1,
Vertical Units,V,,V,
Vertical Offset,0,,0,
Vertical Scale,0.2,,5,
Label,,,,
TIME,CH1,CH1 Peak Detect,CH2,CH2 Peak Detect
-1.00E+01,0.012,0.00399999,0,-0.2
-1.00E+01,0.012,0.028,0,0.4
-9.99E+00,0.012,0.00399999,0,-0.2
-9.99E+00,0.012,0.028,0,0.4
-9.99E+00,0.012,0.00399999,0,-0.2
-9.98E+00,0.012,0.02,0,0.2
-9.98E+00,0.012,0.00399999,0,-0.2
-9.98E+00,0.012,0.028,0,0.4
-9.97E+00,0.012,0.00399999,0,-0.2
-9.97E+00,0.012,0.028,0,0.4
-9.97E+00,0.012,0.00399999,0,-0.2
-9.97E+00,0.012,0.028,0,0.4
-9.96E+00,0.012,0.00399999,0,-0.2
-9.96E+00,0.012,0.028,0,0.4
-9.96E+00,0.012,0.00399999,0,-0.2
-9.95E+00,0.012,0.02,0,0.4
-9.95E+00,0.012,0.00399999,0,-0.2
-9.95E+00,0.012,0.02,0,0.4
-9.94E+00,0.012,0.00399999,0,-0.2
-9.94E+00,0.012,0.028,0,0.4
-9.94E+00,0.012,0.00399999,0,-0.2
-9.93E+00,0.012,0.028,0,0.4
-9.93E+00,0.012,0.00399999,0,-0.2
-9.93E+00,0.012,0.028,0,0.4
-9.92E+00,0.012,0.00399999,0,-0.2
-9.92E+00,0.012,0.028,0,0.4
-9.92E+00,0.012,0.00399999,0,-0.2
-9.91E+00,0.012,0.028,0,0.2
-9.91E+00,0.012,0.00399999,0,-0.2
-9.91E+00,0.012,0.028,0,0.4
-9.90E+00,0.00399999,0.00399999,0.2,-0.2
-9.90E+00,0.012,0.028,0,0.4
-9.90E+00,0.012,0.00399999,0,-0.2
-9.89E+00,0.012,0.028,0,0.4
-9.89E+00,0.012,0.00399999,0,-0.2
-9.89E+00,0.012,0.028,0,0.4
-9.89E+00,0.012,0.00399999,0,-0.2
-9.88E+00,0.012,0.028,0,0.4
-9.88E+00,0.012,0.00399999,0,-0.2
-9.88E+00,0.012,0.028,0,0.4
-9.87E+00,0.012,0.00399999,0,-0.2
-9.87E+00,0.012,0.028,0,0.4
-9.87E+00,0.012,0.00399999,0,-0.2
-9.86E+00,0.012,0.028,0,0.4
-9.86E+00,0.012,0.00399999,0,-0.2
-9.86E+00,0.012,0.028,0,0.4
-9.85E+00,0.012,-0.00400001,0,-0.2
-9.85E+00,0.012,0.028,0,0.4
-9.85E+00,0.012,0.00399999,0,-0.2
-9.84E+00,0.012,0.028,0,0.2
-9.84E+00,0.012,0.00399999,0,-0.2
-9.84E+00,0.012,0.028,0,0.4
-9.83E+00,0.012,-0.00400001,0,-0.2
-9.83E+00,0.012,0.028,0,0.4
-9.83E+00,0.012,0.00399999,0,-0.2
-9.82E+00,0.012,0.028,0,0.2
-9.82E+00,0.012,0.00399999,0,-0.2
-9.82E+00,0.012,0.028,0,0.4
-9.81E+00,0.012,0.00399999,0,-0.2
-9.81E+00,0.012,0.02,0,0.4
-9.81E+00,0.012,0.00399999,0,-0.2
-9.81E+00,0.012,0.028,0,0.4
-9.80E+00,0.012,0.00399999,0,-0.2
-9.80E+00,0.012,0.028,0,0.4
-9.80E+00,0.012,0.00399999,0,-0.2
-9.79E+00,0.012,0.028,0,0.4
-9.79E+00,0.012,0.00399999,0.2,-0.2
-9.79E+00,0.012,0.028,0,0.4
-9.78E+00,0.012,0.00399999,0,-0.2
-9.78E+00,0.012,0.028,0,0.4
-9.78E+00,0.012,0.00399999,0,-0.2
-9.77E+00,0.012,0.028,0,0.4
-9.77E+00,0.012,0.00399999,0,-0.2
-9.77E+00,0.012,0.028,0,0.4
-9.76E+00,0.012,0.00399999,0,-0.2
-9.76E+00,0.012,0.028,0,0.4
-9.76E+00,0.012,0.00399999,0,-0.2
-9.75E+00,0.012,0.028,0,0.2
-9.75E+00,0.012,0.00399999,0,-0.2
-9.75E+00,0.012,0.028,0,0.4
-9.74E+00,0.012,0.00399999,0,-0.2
-9.74E+00,0.012,0.028,0,0.4
-9.74E+00,0.012,0.00399999,0,-0.2
-9.73E+00,0.012,0.028,0,0.4
-9.73E+00,0.012,0.00399999,0,-0.2
-9.73E+00,0.00399999,0.02,0,0.4
-9.73E+00,0.012,0.00399999,0,-0.2
-9.72E+00,0.012,0.02,0,0.4
-9.72E+00,0.012,0.00399999,0,-0.2
-9.72E+00,0.012,0.028,0,0.4
-9.71E+00,0.012,0.00399999,0,-0.4
-9.71E+00,0.012,0.028,0,0.4
-9.71E+00,0.012,0.00399999,0,-0.2
-9.70E+00,0.012,0.028,0,0.4
-9.70E+00,0.012,0.00399999,0,-0.2
-9.70E+00,0.012,0.028,0,0.4
-9.69E+00,0.012,0.00399999,0,-0.2
-9.69E+00,0.012,0.028,0,0.4
-9.69E+00,0.012,0.00399999,0,-0.2
-9.68E+00,0.02,0.028,0,0.2
-9.68E+00,0.012,0.00399999,0,-0.2
-9.68E+00,0.012,0.028,0,0.4
-9.67E+00,0.012,-0.268,0,-9
-9.67E+00,0.012,0.86,0.2,13.2
-9.67E+00,0.012,0.00399999,0.6,-0.6
-9.66E+00,0.012,0.028,0.2,0.8
-9.66E+00,0.012,0.00399999,0,-0.2
-9.66E+00,0.012,0.02,0,0.4
-9.65E+00,0.012,0.00399999,0,-0.2
-9.65E+00,0.012,0.028,0,0.4
-9.65E+00,0.012,0.00399999,0,-0.2
-9.65E+00,0.012,0.028,0,0.4
-9.64E+00,0.012,0.00399999,0,-0.2
-9.64E+00,0.012,0.02,0,0.2
-9.64E+00,0.012,0.00399999,0,-0.2
-9.63E+00,0.012,0.02,0,0.4
-9.63E+00,0.012,0.00399999,0,-0.2
-9.63E+00,0.012,0.02,0,0.4
-9.62E+00,0.012,0.00399999,0,-0.2
-9.62E+00,0.012,0.02,0,0.4
-9.62E+00,0.012,-0.00400001,0,-0.4
-9.61E+00,0.012,0.028,0,0.4
-9.61E+00,0.012,0.00399999,0,-0.2
-9.61E+00,0.012,0.02,0,0.4
-9.60E+00,0.012,-0.00400001,0,-0.2
-9.60E+00,0.012,0.028,0,0.4
-9.60E+00,0.012,0.00399999,0,-0.2
-9.59E+00,0.012,0.02,0,0.4
-9.59E+00,0.012,0.00399999,0,-0.2
-9.59E+00,0.012,0.02,0,0.4
-9.58E+00,0.012,0.00399999,0,-0.2
-9.58E+00,0.012,0.02,0,0.4
-9.58E+00,0.012,0.00399999,0,-0.2
-9.57E+00,0.012,0.02,0,0.4
-9.57E+00,0.012,-0.00400001,0,-0.2
-9.57E+00,0.012,0.02,0,0.4
-9.57E+00,0.012,0.00399999,0,-0.2
-9.56E+00,0.012,0.02,0,0.4
-9.56E+00,0.012,0.00399999,0,-0.2
-9.56E+00,0.012,0.02,0,0.4
-9.55E+00,0.012,-0.00400001,0,-0.2
-9.55E+00,0.012,0.02,0,0.4
-9.55E+00,0.012,0.00399999,0,-0.2
-9.54E+00,0.012,0.02,0,0.4
-9.54E+00,0.012,-0.00400001,0,-0.2
-9.54E+00,0.012,0.02,0,0.4
-9.53E+00,0.012,-0.00400001,0,-0.2
-9.53E+00,0.012,0.02,0,0.4
-9.53E+00,0.012,-0.00400001,0,-0.2
-9.52E+00,0.012,0.02,0,0.2
-9.52E+00,0.012,-0.00400001,0,-0.2
-9.52E+00,0.012,0.02,0,0.4
-9.51E+00,0.012,-0.00400001,0,-0.2
-9.51E+00,0.012,0.02,0,0.4
-9.51E+00,0.012,-0.00400001,0,-0.2
-9.50E+00,0.012,0.02,0,0.2
-9.50E+00,0.012,-0.00400001,0,-0.2
-9.50E+00,0.012,0.02,0,0.4
-9.49E+00,0.012,-0.00400001,0,-0.2
-9.49E+00,0.012,0.02,0,0.2
-9.49E+00,0.00399999,-0.00400001,0,-0.2
-9.49E+00,0.012,0.02,0,0.4
-9.48E+00,0.012,-0.00400001,0,-0.2
-9.48E+00,0.012,0.02,0,0.4
-9.48E+00,0.00399999,-0.00400001,0,-0.2
-9.47E+00,0.00399999,0.02,0,0.4
-9.47E+00,0.012,-0.00400001,0,-0.2
-9.47E+00,0.012,0.02,0,0.4
-9.46E+00,0.012,-0.00400001,0,-0.2
-9.46E+00,0.00399999,0.02,0,0.4
-9.46E+00,0.012,-0.00400001,0,-0.2
-9.45E+00,0.012,0.02,0,0.4
-9.45E+00,0.012,-0.00400001,0,-0.2
-9.45E+00,0.012,0.02,0,0.4
-9.44E+00,0.012,-0.00400001,0,-0.2
-9.44E+00,0.012,0.02,0,0.4
-9.44E+00,0.012,-0.00400001,0,-0.2
-9.43E+00,0.00399999,0.02,0,0.2
-9.43E+00,0.012,-0.00400001,0,-0.2
-9.43E+00,0.00399999,0.02,0,0.4
-9.42E+00,0.012,-0.00400001,0,-0.2
-9.42E+00,0.012,0.02,0,0.4
-9.42E+00,0.012,-0.00400001,0,-0.2
-9.41E+00,0.012,0.02,0,0.2
-9.41E+00,0.012,-0.00400001,0,-0.2
-9.41E+00,0.00399999,0.02,0,0.2
-9.41E+00,0.012,-0.00400001,0,-0.2
-9.40E+00,0.00399999,0.02,0,0.4
-9.40E+00,0.00399999,-0.00400001,0,-0.2
-9.40E+00,0.00399999,0.02,0,0.4
-9.39E+00,0.012,-0.00400001,0,-0.2
-9.39E+00,0.012,0.02,0,0.4
-9.39E+00,0.012,-0.00400001,0,-0.2
-9.38E+00,0.012,0.02,0,0.4
-9.38E+00,0.012,-0.00400001,0,-0.2
-9.38E+00,0.012,0.02,0,0.2
-9.37E+00,0.012,-0.00400001,0,-0.2
-9.37E+00,0.00399999,0.02,0,0.4
-9.37E+00,0.012,-0.00400001,0,-0.2
-9.36E+00,0.012,0.02,0,0.2
-9.36E+00,0.012,-0.00400001,0,-0.2
-9.36E+00,0.00399999,0.02,0,0.4
-9.35E+00,0.012,-0.00400001,0,-0.2
-9.35E+00,0.00399999,0.02,0,0.4
-9.35E+00,0.00399999,-0.00400001,0,-0.2
-9.34E+00,0.012,0.02,0,0.2
-9.34E+00,0.012,-0.00400001,0,-0.2
-9.34E+00,0.012,0.02,0,0.4
-9.33E+00,0.012,-0.00400001,0,-0.2
-9.33E+00,0.012,0.02,0,0.4
-9.33E+00,0.00399999,-0.00400001,0,-0.2
-9.33E+00,0.012,0.02,0,0.4
-9.32E+00,0.012,-0.00400001,0,-0.2
-9.32E+00,0.012,0.02,0,0.4
-9.32E+00,0.012,-0.00400001,0,-0.2
-9.31E+00,0.00399999,0.02,0,0.2
-9.31E+00,0.012,-0.00400001,0,-0.2
-9.31E+00,0.00399999,0.02,0,0.4
-9.30E+00,0.00399999,-0.00400001,0,-0.2
-9.30E+00,0.012,0.02,0,0.4
-9.30E+00,0.012,-0.00400001,0,-0.2
-9.29E+00,0.012,0.02,0,0.2
-9.29E+00,0.012,-0.00400001,0,-0.2
-9.29E+00,0.012,0.02,0,0.4
-9.28E+00,0.00399999,-0.00400001,0,-0.2
-9.28E+00,0.00399999,0.02,0,0.4
-9.28E+00,0.00399999,-0.00400001,0,-0.2
-9.27E+00,0.00399999,0.02,0,0.4
-9.27E+00,0.012,-0.00400001,0,-0.2
-9.27E+00,0.00399999,0.02,0,0.4
-9.26E+00,0.00399999,-0.00400001,0,-0.2
-9.26E+00,0.00399999,0.02,0,0.4
-9.26E+00,0.00399999,-0.00400001,0,-0.2
-9.25E+00,0.00399999,0.02,0,0.2
-9.25E+00,0.00399999,-0.00400001,0,-0.2
-9.25E+00,0.00399999,0.02,0,0.4
-9.25E+00,0.00399999,-0.00400001,0,-0.2
-9.24E+00,0.012,0.02,0,0.4
-9.24E+00,0.00399999,-0.00400001,0,-0.2
-9.24E+00,0.012,0.02,0,0.4
-9.23E+00,0.00399999,-0.00400001,0,-0.2
-9.23E+00,0.00399999,0.02,0,0.4
-9.23E+00,0.012,-0.00400001,0,-0.2
-9.22E+00,0.012,0.02,0,0.2
-9.22E+00,0.00399999,-0.00400001,0,-0.2
-9.22E+00,0.00399999,0.02,0,0.4
-9.21E+00,0.00399999,-0.00400001,0,-0.2
-9.21E+00,0.00399999,0.02,0,0.4
-9.21E+00,0.00399999,-0.00400001,0,-0.2
-9.20E+00,0.00399999,0.02,0,0.4
-9.20E+00,0.00399999,-0.00400001,0,-0.2
-9.20E+00,0.00399999,0.02,0,0.4
-9.19E+00,0.00399999,-0.00400001,0.2,-0.2
-9.19E+00,0.00399999,0.02,0,0.4
-9.19E+00,0.00399999,-0.00400001,0,-0.2
-9.18E+00,0.00399999,0.02,0,0.2
-9.18E+00,0.00399999,-0.00400001,0,-0.2
-9.18E+00,0.00399999,0.02,0,0.4
-9.17E+00,0.00399999,-0.00400001,0,-0.2
-9.17E+00,0.00399999,0.02,0,0.4
-9.17E+00,0.012,-0.00400001,0,-0.2
-9.17E+00,0.00399999,0.02,0,0.4
-9.16E+00,0.00399999,-0.00400001,0,-0.2
-9.16E+00,0.00399999,0.02,0,0.4
-9.16E+00,0.00399999,-0.00400001,0,-0.2
-9.15E+00,0.00399999,0.02,0,0.4
-9.15E+00,0.00399999,-0.00400001,0,-0.2
-9.15E+00,0.00399999,0.02,0,0.4
-9.14E+00,0.00399999,-0.00400001,0,-0.2
-9.14E+00,0.00399999,0.02,0,0.4
-9.14E+00,0.012,-0.00400001,0,-0.2
-9.13E+00,0.00399999,0.02,0,0.4
-9.13E+00,0.00399999,-0.00400001,0,-0.2
-9.13E+00,0.00399999,0.02,0,0.4
-9.12E+00,0.012,-0.00400001,0,-0.2
-9.12E+00,0.00399999,0.02,0,0.4
-9.12E+00,0.00399999,-0.00400001,0,-0.2
-9.11E+00,0.00399999,0.02,0,0.2
-9.11E+00,0.012,-0.00400001,0,-0.2
-9.11E+00,0.00399999,0.02,0,0.2
-9.10E+00,0.00399999,-0.00400001,0,-0.2
-9.10E+00,0.00399999,0.02,0,0.4
-9.10E+00,0.00399999,-0.00400001,0,-0.2
-9.09E+00,0.00399999,0.02,0,0.2
-9.09E+00,0.00399999,-0.00400001,0,-0.2
-9.09E+00,0.00399999,0.02,0,0.4
-9.09E+00,0.00399999,-0.00400001,0,-0.2
-9.08E+00,0.00399999,0.02,0,0.2
-9.08E+00,0.00399999,-0.00400001,0,-0.2
-9.08E+00,0.00399999,0.02,0,0.2
-9.07E+00,0.00399999,-0.00400001,0,-0.2
-9.07E+00,0.00399999,0.02,0,0.4
-9.07E+00,0.00399999,-0.00400001,0,-0.2
-9.06E+00,0.00399999,0.02,0,0.4
-9.06E+00,0.00399999,-0.00400001,0,-0.2
-9.06E+00,0.00399999,0.02,0,0.4
-9.05E+00,0.00399999,-0.012,0,-0.2
-9.05E+00,0.00399999,0.02,0,0.4
-9.05E+00,0.00399999,-0.00400001,0,-0.2
-9.04E+00,0.00399999,0.02,0,0.2
-9.04E+00,0.00399999,-0.00400001,0,-0.2
-9.04E+00,0.00399999,0.02,0,0.4
-9.03E+00,0.00399999,-0.00400001,0,-0.2
-9.03E+00,0.00399999,0.02,0,0.4
-9.03E+00,0.00399999,-0.00400001,0,-0.2
-9.02E+00,0.00399999,0.02,0,0.2
-9.02E+00,0.00399999,-0.00400001,0,-0.2
-9.02E+00,0.00399999,0.02,0,0.4
-9.01E+00,0.00399999,-0.00400001,0,-0.2
-9.01E+00,0.012,0.02,0,0.4
-9.01E+00,0.00399999,-0.00400001,0,-0.2
-9.01E+00,0.00399999,0.02,0,0.4
-9.00E+00,0.00399999,-0.00400001,0,-0.2
-9.00E+00,0.00399999,0.02,0,0.4
-9.00E+00,0.00399999,-0.012,0,-0.2
-8.99E+00,0.00399999,0.02,0,0.4
-8.99E+00,0.00399999,-0.00400001,0,-0.2
-8.99E+00,0.00399999,0.02,0,0.4
-8.98E+00,0.00399999,-0.012,0,-0.2
-8.98E+00,0.00399999,0.02,0,0.4
-8.98E+00,0.00399999,-0.00400001,0,-0.2
-8.97E+00,0.00399999,0.012,0,0.4
-8.97E+00,0.00399999,-0.012,0,-0.2
-8.97E+00,0.00399999,0.02,0,0.4
-8.96E+00,0.00399999,-0.00400001,0,-0.2
-8.96E+00,0.00399999,0.02,0,0.4
-8.96E+00,0.00399999,-0.012,0,-0.2
-8.95E+00,0.00399999,0.012,0,0.4
-8.95E+00,0.00399999,-0.012,0,-0.2
-8.95E+00,0.00399999,0.02,0,0.4
-8.94E+00,0.00399999,-0.00400001,0,-0.2
-8.94E+00,0.00399999,0.02,0,0.4
-8.94E+00,0.00399999,-0.00400001,0,-0.2
-8.93E+00,0.00399999,0.012,0,0.2
-8.93E+00,0.00399999,-0.00400001,0,-0.2
-8.93E+00,0.00399999,0.02,0,0.4
-8.93E+00,0.00399999,-0.00400001,0,-0.2
-8.92E+00,0.00399999,0.02,0,0.4
-8.92E+00,0.00399999,-0.00400001,0,-0.2
-8.92E+00,0.00399999,0.012,0.2,0.4
-8.91E+00,0.00399999,-0.00400001,0,-0.2
-8.91E+00,0.00399999,0.02,0,0.4
-8.91E+00,0.00399999,-0.00400001,0,-0.2
-8.90E+00,0.00399999,0.02,0,0.4
-8.90E+00,0.00399999,-0.00400001,0,-0.2
-8.90E+00,0.00399999,0.02,0,0.4
-8.89E+00,0.00399999,-0.00400001,0,-0.2
-8.89E+00,0.00399999,0.012,0,0.4
-8.89E+00,0.00399999,-0.00400001,0,-0.2
-8.88E+00,0.00399999,0.012,0,0.4
-8.88E+00,0.00399999,-0.00400001,0,-0.2
-8.88E+00,0.00399999,0.02,0,0.4
-8.87E+00,0.00399999,-0.012,0,-0.2
-8.87E+00,0.00399999,0.02,0,0.4
-8.87E+00,0.00399999,-0.00400001,0,-0.2
-8.86E+00,0.00399999,0.02,0,0.4
-8.86E+00,0.00399999,-0.00400001,0,-0.2
-8.86E+00,0.00399999,0.012,0,0.4
-8.85E+00,0.00399999,-0.012,0,-0.2
-8.85E+00,0.00399999,0.02,0,0.4
-8.85E+00,0.00399999,-0.00400001,0,-0.2
-8.85E+00,0.00399999,0.02,0,0.4
-8.84E+00,0.00399999,-0.00400001,0,-0.2
-8.84E+00,0.00399999,0.02,0,0.4
-8.84E+00,0.00399999,-0.012,0,-0.2
-8.83E+00,0.00399999,0.012,0,0.4
-8.83E+00,0.00399999,-0.00400001,0,-0.2
-8.83E+00,0.00399999,0.012,0,0.4
-8.82E+00,0.00399999,-0.00400001,0,-0.2
-8.82E+00,0.00399999,0.02,0,0.4
-8.82E+00,0.00399999,-0.00400001,0,-0.2
-8.81E+00,0.00399999,0.012,0,0.4
-8.81E+00,0.00399999,-0.012,0,-0.2
-8.81E+00,0.00399999,0.02,0,0.4
-8.80E+00,0.00399999,-0.00400001,0,-0.2
-8.80E+00,0.00399999,0.02,0,0.4
-8.80E+00,0.00399999,-0.00400001,0,-0.2
-8.79E+00,0.00399999,0.012,0,0.4
-8.79E+00,0.00399999,-0.00400001,0,-0.2
-8.79E+00,0.00399999,0.02,0,0.4
-8.78E+00,0.00399999,-0.012,0,-0.2
-8.78E+00,0.00399999,0.012,0,0.4
-8.78E+00,0.00399999,-0.00400001,0,-0.2
-8.77E+00,0.00399999,0.012,0,0.4
-8.77E+00,0.00399999,-0.012,0,-0.2
-8.77E+00,0.00399999,0.012,0,0.4
-8.77E+00,0.00399999,-0.00400001,0,-0.2
-8.76E+00,0.00399999,0.02,0,0.4
-8.76E+00,0.00399999,-0.012,0,-0.2
-8.76E+00,-0.00400001,0.012,0,0.4
-8.75E+00,0.00399999,-0.012,0,-0.2
-8.75E+00,0.00399999,0.02,0,0.4
-8.75E+00,0.00399999,-0.00400001,0,-0.2
-8.74E+00,0.00399999,0.012,0,0.4
-8.74E+00,0.00399999,-0.012,0,-0.2
-8.74E+00,0.00399999,0.012,0,0.4
-8.73E+00,0.00399999,-0.012,0,-0.2
-8.73E+00,0.00399999,0.012,0,0.4
-8.73E+00,0.00399999,-0.012,0,-0.2
-8.72E+00,0.00399999,0.012,0,0.2
-8.72E+00,0.00399999,-0.012,0,-0.2
-8.72E+00,0.00399999,0.02,0,0.4
-8.71E+00,0.00399999,-0.012,0,-0.2
-8.71E+00,0.00399999,0.012,0,0.4
-8.71E+00,0.00399999,-0.012,0,-0.2
-8.70E+00,0.00399999,0.012,0,0.2
-8.70E+00,0.00399999,-0.012,0,-0.2
-8.70E+00,0.00399999,0.012,0,0.4
-8.69E+00,0.00399999,-0.012,0,-0.2
-8.69E+00,0.00399999,0.02,0,0.2
-8.69E+00,0.00399999,-0.012,0,-0.2
-8.69E+00,0.00399999,0.012,0,0.4
-8.68E+00,0.00399999,-0.00400001,0,-0.2
-8.68E+00,0.00399999,0.012,0,0.4
-8.68E+00,0.00399999,-0.012,0,-0.2
-8.67E+00,0.00399999,0.012,0,0.4
-8.67E+00,0.00399999,-0.012,0,-0.2
-8.67E+00,0.00399999,0.012,0,0.4
-8.66E+00,0.00399999,-0.012,0,-0.2
-8.66E+00,0.00399999,0.02,0,0.4
-8.66E+00,0.00399999,-0.012,0,-0.2
-8.65E+00,0.00399999,0.012,0,0.4
-8.65E+00,0.00399999,-0.012,0,-0.2
-8.65E+00,0.00399999,0.012,0,0.4
-8.64E+00,0.00399999,-0.012,0,-0.2
-8.64E+00,0.00399999,0.012,0,0.4
-8.64E+00,0.00399999,-0.012,0,-0.2
-8.63E+00,-0.00400001,0.012,0,0.4
-8.63E+00,0.00399999,-0.012,0,-0.2
-8.63E+00,0.00399999,0.012,0,0.4
-8.62E+00,0.00399999,-0.012,0,-0.2
-8.62E+00,0.00399999,0.012,0,0.4
-8.62E+00,0.00399999,-0.012,0,-0.2
-8.61E+00,0.00399999,0.012,0,0.2
-8.61E+00,0.00399999,-0.012,0,-0.2
-8.61E+00,0.00399999,0.012,0,0.4
-8.61E+00,0.00399999,-0.012,0,-0.2
-8.60E+00,0.00399999,0.012,0,0.4
-8.60E+00,0.00399999,-0.012,0,-0.2
-8.60E+00,0.00399999,0.012,0,0.4
-8.59E+00,0.00399999,-0.012,0,-0.2
-8.59E+00,0.00399999,0.012,0,0.4
-8.59E+00,0.00399999,-0.012,0,-0.2
-8.58E+00,0.00399999,0.012,0,0.4
-8.58E+00,0.00399999,-0.012,0,-0.2
-8.58E+00,0.00399999,0.012,0,0.4
-8.57E+00,0.00399999,-0.012,0,-0.2
-8.57E+00,0.00399999,0.012,0,0.4
-8.57E+00,0.00399999,-0.012,0,-0.2
-8.56E+00,0.00399999,0.012,0,0.4
-8.56E+00,0.00399999,-0.012,0,-0.2
-8.56E+00,-0.00400001,0.012,0,0.2
-8.55E+00,0.00399999,-0.012,0,-0.2
-8.55E+00,0.00399999,0.012,0,0.4
-8.55E+00,0.00399999,-0.012,0,-0.2
-8.54E+00,0.00399999,0.012,0,0.4
-8.54E+00,-0.00400001,-0.012,0,-0.2
-8.54E+00,0.00399999,0.012,0,0.4
-8.53E+00,0.00399999,-0.012,0,-0.2
-8.53E+00,0.00399999,0.012,0,0.4
-8.53E+00,0.00399999,-0.012,0,-0.2
-8.53E+00,0.00399999,0.012,0,0.4
-8.52E+00,0.00399999,-0.012,0,-0.2
-8.52E+00,0.00399999,0.012,0,0.4
-8.52E+00,0.00399999,-0.012,0,-0.2
-8.51E+00,0.00399999,0.012,0,0.4
-8.51E+00,0.00399999,-0.012,0,-0.2
-8.51E+00,0.00399999,0.012,0,0.4
-8.50E+00,0.00399999,-0.012,0,-0.2
-8.50E+00,0.00399999,0.012,0,0.4
-8.50E+00,0.00399999,-0.012,0,-0.2
-8.49E+00,0.00399999,0.012,0,0.4
-8.49E+00,0.00399999,-0.012,0,-0.2
-8.49E+00,0.00399999,0.012,0,0.4
-8.48E+00,0.00399999,-0.012,0,-0.2
-8.48E+00,0.00399999,0.012,0,0.4
-8.48E+00,0.00399999,-0.012,0,-0.2
-8.47E+00,0.00399999,0.012,0,0.2
-8.47E+00,0.00399999,-0.012,0,-0.2
-8.47E+00,0.00399999,0.172,0,2.4
-8.46E+00,0.164,0.156,1,0.6
-8.46E+00,0.404,0.484,1.2,1.6
-8.46E+00,0.476,0.468,1.4,1.2
-8.45E+00,0.5,0.516,1.4,1.6
-8.45E+00,0.516,-0.044,1.4,1.2
-8.45E+00,0.516,0.524,1.6,2
-8.45E+00,0.02,0.012,2,1.6
-8.44E+00,0.02,0.036,1.8,2.2
-8.44E+00,0.02,0.012,2,1.6
-8.44E+00,0.524,0.58,1.8,2.6
-8.43E+00,0.516,-0.044,2.2,1.8
-8.43E+00,0.516,0.524,2,3
-8.43E+00,0.02,0.012,2.8,2
-8.42E+00,0.02,0.58,2.6,3.2
-8.42E+00,0.516,-0.044,2.6,2.4
-8.42E+00,0.516,0.524,2.6,3.6
-8.41E+00,0.02,0.012,3.2,2.4
-8.41E+00,0.572,0.58,2.8,3.4
-8.41E+00,0.516,-0.044,3.2,2.8
-8.40E+00,0.02,0.58,3.8,4
-8.40E+00,0.524,-0.044,3,2.4
-8.40E+00,0.516,0.54,3.2,4.4
-8.39E+00,0.02,-0.044,4,2.8
-8.39E+00,0.516,0.58,4,4.2
-8.39E+00,0.02,-0.044,4.2,3.2
-8.38E+00,0.516,0.58,3.4,4.6
-8.38E+00,0.012,-0.044,3.6,3.2
-8.38E+00,0.532,0.58,3.6,5
-8.37E+00,0.00399999,-0.044,3.8,3
-8.37E+00,0.524,0.58,3.8,5.2
-8.37E+00,0.02,-0.044,4,3.4
-8.37E+00,0.516,0.58,4,5.4
-8.36E+00,0.02,-0.044,5,3.8
-8.36E+00,0.516,0.58,4.8,5.8
-8.36E+00,0.02,-0.044,5.6,4
-8.35E+00,0.516,0.58,4.6,6
-8.35E+00,0.524,-0.044,4.4,4
-8.35E+00,0.02,0.58,5.4,6
-8.34E+00,0.516,-0.044,5.2,4.2
-8.34E+00,0.54,0.58,5,6.2
-8.34E+00,0.02,-0.044,5.8,4.6
-8.33E+00,0.516,0.58,5.4,6.4
-8.33E+00,0.516,-0.044,5,4.6
-8.33E+00,0.02,0.58,6.4,6.6
-8.32E+00,0.02,-0.044,5.6,4.8
-8.32E+00,0.516,0.58,5.8,7
-8.32E+00,0.516,-0.044,5.4,5
-8.31E+00,0.02,0.58,6.6,7
-8.31E+00,0.02,-0.044,6.6,5.2
-8.31E+00,0.012,0.58,5.8,7.2
-8.30E+00,0.516,-0.044,6.2,5.2
-8.30E+00,0.516,0.58,6,7.4
-8.30E+00,0.516,-0.044,6,5.6
-8.29E+00,0.564,0.58,6.8,7.6
-8.29E+00,0.02,-0.044,7.4,5.4
-8.29E+00,0.02,0.58,7.4,7.8
-8.29E+00,0.02,-0.044,7.4,5.8
-8.28E+00,0.02,0.58,7,8
-8.28E+00,0.02,-0.044,7.2,5.8
-8.28E+00,0.02,0.58,6.8,8.2
-8.27E+00,0.02,-0.044,6.8,6.2
-8.27E+00,0.02,0.58,7,8.4
-8.27E+00,0.012,-0.044,7.2,6.4
-8.26E+00,0.02,0.58,7.4,8.6
-8.26E+00,0.02,-0.044,7.8,6.4
-8.26E+00,0.02,0.58,8.2,8.8
-8.25E+00,0.02,-0.044,8.6,6.6
-8.25E+00,0.02,0.588,8.8,9
-8.25E+00,0.54,-0.044,8.4,6.8
-8.24E+00,0.524,0.58,8,9
-8.24E+00,0.516,-0.044,7.8,6.8
-8.24E+00,0.516,0.58,7.6,9.4
-8.23E+00,0.012,-0.044,7.8,7
-8.23E+00,0.02,0.58,8.8,9.4
-8.23E+00,0.02,-0.044,9.2,7.2
-8.22E+00,0.516,0.58,8.6,9.6
-8.22E+00,0.516,-0.044,8.4,7.2
-8.22E+00,0.02,0.58,8.2,9.8
-8.21E+00,0.02,-0.044,9.6,7.6
-8.21E+00,0.524,0.58,9,10
-8.21E+00,0.516,-0.044,8.6,7.4
-8.21E+00,0.012,0.58,9,10.2
-8.20E+00,0.548,-0.044,9.8,7.6
-8.20E+00,0.516,0.58,9,10.6
-8.20E+00,0.02,-0.044,9,8
-8.19E+00,0.556,0.58,10,10.6
-8.19E+00,0.516,-0.044,9.4,7.8
-8.19E+00,0.02,0.58,9.8,10.8
-8.18E+00,0.524,-0.044,10,7.6
-8.18E+00,-0.00400001,0.58,9.2,10.8
-8.18E+00,0.02,-0.044,10.6,8.6
-8.17E+00,0.516,0.58,9.8,11.6
-8.17E+00,0.012,-0.044,10.4,8.8
-8.17E+00,0.516,0.58,10.2,11.4
-8.16E+00,0.02,-0.044,10.2,9
-8.16E+00,0.516,0.58,10.6,11.4
-8.16E+00,0.02,-0.044,10.2,9
-8.15E+00,0.516,0.58,10.6,11.6
-8.15E+00,0.02,-0.044,10.6,9.2
-8.15E+00,0.516,0.58,10.6,12.4
-8.14E+00,0.012,-0.044,11.2,9.6
-8.14E+00,0.516,0.58,10.6,12
-8.14E+00,0.556,-0.044,11.2,9.6
-8.13E+00,0.012,0.58,10.6,12
-8.13E+00,0.516,-0.044,11.2,9.8
-8.13E+00,0.02,0.58,11.4,12
-8.13E+00,0.516,-0.044,11,10.2
-8.12E+00,0.532,0.58,11.4,12
-8.12E+00,0.012,-0.044,11.4,10.2
-8.12E+00,0.516,0.588,11.2,12.2
-8.11E+00,0.524,-0.044,11.4,9.8
-8.11E+00,0.02,0.58,11.6,13.4
-8.11E+00,0.516,-0.044,11.4,10.6
-8.10E+00,0.524,0.58,11.8,12.8
-8.10E+00,0.02,-0.044,11.8,9.8
-8.10E+00,0.012,0.604,11.6,13.8
-8.09E+00,0.516,-0.044,11.8,11
-8.09E+00,0.524,0.58,12,13
-8.09E+00,0.012,-0.044,12,10.8
-8.08E+00,0.012,0.58,12,12.8
-8.08E+00,-0.028,-0.044,12,9.8
-8.08E+00,0.516,0.58,12,13.4
-8.07E+00,0.532,-0.044,12,11.2
-8.07E+00,0.02,0.58,12,13
